…
</tr>

</tbody>

</table>

## check pannel

``` r
res <- cqc_check(cqc_data, "panel")
res
```

    ## # A tibble: 25 x 8
    ##    channel `group 1(n=1)` `group 2(n=1)` `group 3(n=1)` `group 4(n=1)`
    ##    <chr>   <chr>          <chr>          <chr>          <chr>         
    ##  1 <Alexa… LIVE           <NA>           <NA>           <NA>          
    ##  2 <Am Cy… <NA>           HLA-DR         <NA>           <NA>          
    ##  3 <AmCya… HLA-DR         <NA>           HLA-DR         <NA>          
    ##  4 <APC-A> CD38           CD38           CD38           CD38          
    ##  5 <APC-C… CD8            CD8            CD8            CD8           
    ##  6 <APC-H… <NA>           <NA>           <NA>           <NA>          
    ##  7 <B515-… <NA>           <NA>           <NA>           <NA>          
    ##  8 <B710-… <NA>           <NA>           <NA>           <NA>          
    ##  9 <BD Ho… <NA>           <NA>           <NA>           <NA>          
    ## 10 <BD Ho… <NA>           <NA>           <NA>           <NA>          
    ## # … with 15 more rows, and 3 more variables: `group 5(n=1)` <chr>, `group
    ## #   6(n=1)` <chr>, `group 7(n=1)` <chr>
…
